…
Most impactful goals
====================

``` r
winprob %>% 
  group_by(season, round, tie) %>% 
  mutate(wpdiff = abs(pregameodds - lag(pregameodds))) %>% 
  drop_na(away) %>% 
  arrange(-wpdiff) %>% 
  head(30) %>% 
  select(season, round, tie, made_minute, t1win, away, wpdiff)
```

    ## # A tibble: 30 x 7
    ## # Groups:   season, round, tie [28]
    ##    season round tie                made_minute t1win away  wpdiff
    ##     <int> <chr> <chr>                    <int> <int> <chr>  <dbl>
    ##  1   2009 semi  barcelona-chelsea          184     1 a      0.675
    ##  2   2012 first marseille-inter            184     1 a      0.636
    ##  3   2009 first arsenal-roma               217     1 a      0.618
    ##  4   2010 first bayern-fiorentina          153     1 a      0.590
    ##  5   2018 first juventus-tottenham         160     1 a      0.583
    ##  6   2019 first united-psg                 184     1 a      0.576
    ##  7   2017 qtr   bayern-madrid              151     0 a      0.575
    ##  8   2013 first madrid-united              159     1 a      0.574
    ##  9   2015 first psg-chelsea                209     0 a      0.573
    ## 10   2008 semi  liverpool-chelsea          157     0 a      0.557
    ## # ... with 20 more rows
